…
> statedets=group_by(d,state)
> states1=summarise(statedets,finesum1=sum(finetot,na.rm = TRUE))
> summary(states1)
   d$state             finesum1        
 Length:52          Min.   :   175000  
 Class :character   1st Qu.: 10496125  
 Mode  :character   Median : 35916550  
                    Mean   : 68015406  
                    3rd Qu.: 85464500  
                    Max.   :473780700 
> y=group_by(d,state)
> summarise(y,state_sum=sum(finetot,na.rm = TRUE))
# A tibble: 52 x 2
   state state_sum
   <chr>     <int>
 1 AK       175000
 2 AL     68169900
 3 AR     16093200
 4 AZ     64185100
 5 CA    473780700
 6 CO     91523800
 7 CT     63228200
 8 DC     25054100
 9 DE      5398700
10 FL    256404700
# ... with 42 more rows
> least=summarise(y,state_sum=sum(finetot,na.rm = TRUE))
> arrange(least,least$state_sum)
# A tibble: 52 x 2
   state state_sum
   <chr>     <int>
 1 AK       175000
 2 MT      1120800
 3 ND      1614600
 4 ME      1873100
 5 SD      2950300
 6 VT      2988800
 7 ID      3765600
 8 WY      3996200
 9 HI      4261700
10 DE      5398700
# ... with 42 more rows
…
> least=group_by(d,state)
> least$online_fine=as.integer(least$online_fine)
> leastste=summarise(least,mysum=sum(online_fine,na.rm = TRUE))
> summary(leastste)
    state               mysum         
 Length:52          Min.   :       0  
 Class :character   1st Qu.:  824125  
 Mode  :character   Median : 2932100  
                    Mean   : 5167442  
                    3rd Qu.: 5505525  
                    Max.   :40629000  
> arrange(leastste,leastste$mysum)
# A tibble: 52 x 2
   state  mysum
   <chr>  <int>
 1 AK         0
 2 ND     32100
 3 ME    300600
 4 MT    310800
 5 VT    323500
 6 WY    333700
 7 NM    395500
 8 DE    444000
 9 ID    468100
10 SD    560300
# ... with 42 more rows

Query 6.
6.Write a SQL query to find the number of doctors that contributed to the state having highest 'cash' fine

> highcash=group_by(d,state)
> highcash$cash_fine=as.integer(highcash$cash_fine)
> highcash1=summarise(highcash,mysum1=sum(cash_fine,na.rm = TRUE))
> arrange(highcash1,-highcash1$mysum1)
# A tibble: 52 x 2
   state    mysum1
   <chr>     <int>
 1 CA    433151700
 2 TX    258704700
 3 FL    240088100
 4 PA    237613100
 5 NC    222915700
 6 NY    184041200
 7 MA    160537500
 8 IL    116532800
 9 MI    106892000
10 MO     92076500
# ... with 42 more rows
…
